\relax 
\providecommand*\caption@xref[2]{\@setref\relax\@undefined{#1}}
\newlabel{fig:1}{{1a}{1}}
\newlabel{sub@fig:1}{{a}{1}}
\newlabel{fig:2}{{1b}{1}}
\newlabel{sub@fig:2}{{b}{1}}
\newlabel{fig:1}{{1c}{1}}
\newlabel{sub@fig:1}{{c}{1}}
\newlabel{fig:2}{{1d}{1}}
\newlabel{sub@fig:2}{{d}{1}}
\gdef \@abspage@last{1}
