\begin{tikzpicture} 

  \coordinate (O) at (2.4,0,0);
  \coordinate (A) at (2.4,-2,0);
  \coordinate (B) at (5.1,1.8,0);
  \coordinate (C) at (5.9,2.6,0);
  \coordinate (D) at (1.8,2.,0);
  \coordinate (E) at (7.1,3.1,0);
  \coordinate (F) at (6.4,4.9,0);
  \coordinate (G) at (9.1,3.1,0);
  \coordinate (H) at (4.1,4.7,0);
  \coordinate (I) at (7.8,2.6,0);
  
  \begin{scope}[shift={(3,-2)}]
    \node[cylinder, draw, shape aspect=.5, 
      cylinder uses custom fill, cylinder end fill=green!75, 
      minimum height=0.5cm,
      cylinder body fill=green!50, opacity=0.75, 
    scale=5, rotate=90]{};
  \draw[white] (A) node[green, anchor=east] {$Cyl_1$};
  \end{scope}
  \begin{scope}[shift={(3,0)}]
    \node[cylinder, draw, shape aspect=.5, 
      cylinder uses custom fill, cylinder end fill=orange!75, 
      minimum height=0.5cm,
      cylinder body fill=orange!50, opacity=0.75, 
    scale=5, rotate=90]{};
  \draw[white] (O) node[orange, anchor=east] {$Cyl_2$};
  \end{scope}
  \begin{scope}[shift={(3.8,2.3)}]
    \node[cylinder, draw, shape aspect=.5, 
      cylinder uses custom fill, cylinder end fill=orange!75, 
      minimum height=0.6cm,
      cylinder body fill=orange!50, opacity=0.75, 
    scale=3, rotate=-135]{};
  \draw[white] (B) node[orange, anchor=east] {$Cyl_4$};
  \end{scope}
  \begin{scope}[shift={(4.8,3.3)}]
    \node[cylinder, draw, shape aspect=.5, 
      cylinder uses custom fill, cylinder end fill=orange!75, 
      minimum height=0.6cm,
      cylinder body fill=orange!50, opacity=0.75, 
    scale=3, rotate=-135]{};
  \draw[white] (C) node[orange, anchor=east] {$Cyl_5$};
  \end{scope}
  \begin{scope}[shift={(2,2.3)}]
    \node[cylinder, draw, shape aspect=.5, 
      cylinder uses custom fill, cylinder end fill=orange!75, 
      minimum height=1cm,
      cylinder body fill=orange!50, opacity=0.75, 
    scale=3, rotate=-225]{};
  \draw[white] (D) node[orange, anchor=east] {$Cyl_3$};
  \end{scope}
  \begin{scope}[shift={(6.2,3.6)}]
    \node[cylinder, draw, shape aspect=.5,  
      cylinder uses custom fill, cylinder end fill=orange!75, 
      minimum height=1cm,
      cylinder body fill=orange!50, opacity=0.75, 
    scale=2]{};
  \draw[white] (E) node[orange, anchor=east] {$Cyl_6$};
  \end{scope}
  \begin{scope}[shift={(8.0,3.6)}]
    \node[cylinder, draw, shape aspect=.5,  
      cylinder uses custom fill, cylinder end fill=orange!75, 
      minimum height=1cm,
      cylinder body fill=orange!50, opacity=0.75, 
    scale=2]{};
  \draw[white] (G) node[orange, anchor=east] {$Cyl_7$};
  \end{scope}
  \begin{scope}[shift={(7.8,3.0)}]
    \node[cylinder, draw, shape aspect=.5,  
      cylinder uses custom fill, cylinder end fill=orange!75, 
      minimum height=1cm,
      cylinder body fill=orange!50, opacity=0.75, 
    scale=2, rotate=-45]{};
  \draw[white] (I) node[orange, anchor=east] {$Cyl_8$};
  \end{scope}
  \begin{scope}[shift={(5.1,5.)}]
    \node[cylinder, draw, shape aspect=.5,  
      cylinder uses custom fill, cylinder end fill=orange!75, 
      minimum height=1cm,
      cylinder body fill=orange!50, opacity=0.75, 
    scale=2, rotate=-90]{};
  \draw[white] (F) node[orange, anchor=east] {$Cyl_9$};
  \end{scope}
  \begin{scope}[shift={(4.3,4.8)}]
    \node[cylinder, draw, shape aspect=.5,  
      cylinder uses custom fill, cylinder end fill=orange!75, 
      minimum height=1cm,
      cylinder body fill=orange!50, opacity=0.75, 
    scale=2, rotate=-45]{};
  \draw[white] (H) node[orange, anchor=east] {$Cyl_{10}$};
  \end{scope}
\end{tikzpicture}