\begin{tikzpicture} 

  \coordinate (A) at (4.4,1,5);
  \coordinate (B) at (5.1,2.6,0);
  \coordinate (C) at (5.9,2.6,0);
  \coordinate (D) at (1.8,2.,0);
  \coordinate (E) at (6.7,3.1,0);
  \coordinate (F) at (6.1,4.9,0);
  \coordinate (G) at (9.1,3.1,0);
  \coordinate (H) at (4.1,4.5,0);
  \coordinate (I) at (7.8,2.6,0);
  
  \begin{scope}[shift={(3,-2)}]
    \node[cylinder, draw, shape aspect=.5, 
      cylinder uses custom fill, cylinder end fill=brown!75, 
      minimum height=0.5cm,
      cylinder body fill=brown!50, opacity=0.75, 
    scale=5, rotate=90]{};
  \end{scope}
  \begin{scope}[shift={(3,0)}]
    \node[cylinder, draw, shape aspect=.5, 
      cylinder uses custom fill, cylinder end fill=brown!75, 
      minimum height=0.5cm,
      cylinder body fill=brown!50, opacity=0.75, 
    scale=5, rotate=90]{};
  \draw[white] (A) node[brown, anchor=east] {$5$};
  \end{scope}
  \begin{scope}[shift={(3.8,2.3)}]
    \node[cylinder, draw, shape aspect=.5, 
      cylinder uses custom fill, cylinder end fill=red!75, 
      minimum height=0.6cm,
      cylinder body fill=red!50, opacity=0.75, 
    scale=3, rotate=-135]{};
  \draw[white] (B) node[red, anchor=east] {$4$};
  \end{scope}
  \begin{scope}[shift={(4.8,3.3)}]
    \node[cylinder, draw, shape aspect=.5, 
      cylinder uses custom fill, cylinder end fill=red!75, 
      minimum height=0.6cm,
      cylinder body fill=red!50, opacity=0.75, 
    scale=3, rotate=-135]{};
  \end{scope}
  \begin{scope}[shift={(2,2.3)}]
    \node[cylinder, draw, shape aspect=.5, 
      cylinder uses custom fill, cylinder end fill=green!75, 
      minimum height=1cm,
      cylinder body fill=green!50, opacity=0.75, 
    scale=3, rotate=-225]{};
  \draw[white] (D) node[green, anchor=east] {$1$};
  \end{scope}
  \begin{scope}[shift={(6.2,3.6)}]
    \node[cylinder, draw, shape aspect=.5,  
      cylinder uses custom fill, cylinder end fill=violet!75, 
      minimum height=1cm,
      cylinder body fill=violet!50, opacity=0.75, 
    scale=2]{};
  \draw[white] (E) node[violet, anchor=east] {$2$};
  \end{scope}
  \begin{scope}[shift={(8.0,3.6)}]
    \node[cylinder, draw, shape aspect=.5,  
      cylinder uses custom fill, cylinder end fill=green!75, 
      minimum height=1cm,
      cylinder body fill=green!50, opacity=0.75, 
    scale=2]{};
  \draw[white] (G) node[green, anchor=east] {$1$};
  \end{scope}
  \begin{scope}[shift={(7.8,3.0)}]
    \node[cylinder, draw, shape aspect=.5,  
      cylinder uses custom fill, cylinder end fill=green!75, 
      minimum height=1cm,
      cylinder body fill=green!50, opacity=0.75, 
    scale=2, rotate=-45]{};
  \draw[white] (I) node[green, anchor=east] {$1$};
  \end{scope}
  \begin{scope}[shift={(5.1,5.)}]
    \node[cylinder, draw, shape aspect=.5,  
      cylinder uses custom fill, cylinder end fill=green!75, 
      minimum height=1cm,
      cylinder body fill=green!50, opacity=0.75, 
    scale=2, rotate=-90]{};
  \draw[white] (F) node[green, anchor=east] {$1$};
  \end{scope}
  \begin{scope}[shift={(4.3,4.8)}]
    \node[cylinder, draw, shape aspect=.5,  
      cylinder uses custom fill, cylinder end fill=green!75, 
      minimum height=1cm,
      cylinder body fill=green!50, opacity=0.75, 
    scale=2, rotate=-45]{};
  \draw[white] (H) node[green, anchor=east] {$1$};
  \end{scope}
\end{tikzpicture}